*** Life<FredkinCell> 22x9 ***

Generation = 0, Population = 16.
---------
---------
-00------
---------
-0------0
---------
---------
---------
-0-----0-
-00------
---------
---------
------0--
---------
-0-------
---0-0---
---------
--0------
---------
---------
0---0---0
---------

Generation = 10, Population = 88.
---01--0-
1--11----
6-1--7---
-21------
4-2--4-42
---1-1---
22----0--
-3420--00
-316-0-0-
3-6-60-13
17--11---
--2-00--0
-320-0---
-3-1-2-1-
1--22---0
--1-1--30
4--0----1
50--63-23
-2--2-00-
2302-1--1
2-5-0-2--
-03----0-

Generation = 20, Population = 74.
-8---33-0
63----1--
--4-39-2-
---------
9--46-7+-
--4------
34-0---44
--5------
--17----3
-3858---6
----4-74-
05----24-
4--2---47
-----+-2-
-26-----4
---1-4-5-
77----32-
---374--3
23----1--
5----241-
--931-4-3
326---2--

Generation = 30, Population = 110.
7+4----35
--8-455-4
+--47+-5-
4-7--4-1-
--7+9++--
-8-4--134
7---32298
68644713-
--5-4-735
---8-----
-+247685-
1-84-2284
--6-----+
-65---14-
-7+749-55
------27-
++--7+-2-
--6-788-7
45-57-3-3
8-841-5-6
-6-6--647
-38-5-7-4

*** Life<FredkinCell> 17x20 ***

Generation = 0, Population = 11.
--------------------
--------------------
--------------------
--------------------
-------------------0
--------------------
--------------------
--------------0-----
-----------------0--
--------------------
--------------------
---0----------------
--------0-----------
-------00-----------
---------------0----
--------------0-----
-----0--------0-----

Generation = 13, Population = 127.
--------100-0-------
------01-0-0--------
------0-1-----0---0-
----0-2-1---0010-0-0
-----2011---1-10--0-
--01-1-1--0--0------
--00--0---0--0-1----
0--0----00-21-100-0-
-1--0-102-4---0----0
20---0-3------02----
--02--03---0--3-01-0
-----303412-31-10---
22--2-432-23--1--1--
-0--0----3---3---01-
2---------0-1-31133-
032-33---0-2----2---
1--40-3---2-115-5-54

Generation = 26, Population = 157.
11-3010---32-----3-2
4-2--3---42--23--0-1
1-111---8----0---5--
----0-332----------0
---20--52-454--650-1
---31------3-3-0-22-
-33--82-5-43031---2-
329-31-8024-42-2-0--
3-2-------73-3-7-1-1
--12-1--622--13---12
3-1--304---0-------4
--0-2-255--1-464---4
--52-------741-2--1-
7--+2--6---444542--5
7-1-14-15-3-----5---
647--5----6-303-3--3
655--4553-55-6-1-77-

*** Life<FredkinCell> 23x19 ***

Generation = 0, Population = 14.
---------0---------
-------------------
-------------------
-------------------
-------------------
-------------------
-------------------
----------------0--
--0----------------
---------0---------
-------------------
-------------------
------------0---0--
-------------------
-----0-------------
-------------------
-------------------
--------------0----
--------------0----
------0------------
------0------------
-----0-----0-------
---0---------------

Generation = 12, Population = 143.
32---10-----00--00-
-----0---0---0-----
-22--0---2-------2-
--------1-----0----
-00-1---032-0---110
-0-------2----0--0-
-1---1---5---10----
----1-2---3-1-----2
0---33------30--1-1
-0--------11-0---11
-1-1-1---02--0----0
--0-----1-1---0-2--
2--3----320-2-1-3-1
-----012---1--2001-
-3---1-2-2----3-11-
1-----------0-5---3
----4--02---2-3-1-0
--04---1-5023-11--5
-1---4-----130----4
----1-----------0-1
----20--2--31---3-1
---6--23--23-34-421
01-------1--4--0---

Generation = 24, Population = 115.
--3--1------5----41
-----13--1---1--1--
----1-3-1-----3-7-1
0-------------2----
--3---3---4-5-2-7--
---1---------0---3-
---55-----30-3---3-
1-----6------------
---567---44241----3
4--4-4--0-----8--5-
--------4----------
4-----3-4-----2-4--
4-2-4-7---0---5---3
---4-13--2------22-
---5-----3-5-4-----
2-----4---------5--
--52-------235---11
6--6--7-7----5--64-
5---1---5-----4---7
4-----3-------3----
4-2---4---3-4------
2-------40-8-76----
---415---21------1-

*** Life<FredkinCell> 15x16 ***

Generation = 0, Population = 13.
----0-----------
----------------
----------------
--------------0-
----------------
-0-------0------
--0--0----------
--0-------------
-------------0-0
---------0------
----------------
0------0--------
----------------
---------------0
----------------

Generation = 10, Population = 97.
---0-0-0--112-00
1--0--01--1---0-
-----2------01-0
2-1-1-----------
-3--------1--3--
1---1-21---0--0-
---121-222--1--0
--1--00-10--0---
-231-52---13----
1--02-120-0---12
----02-2-2-1----
1-1-21203-0-03-3
--1--0-------4-2
1--1-11-00-1--02
0-0110-1---0---1

Generation = 20, Population = 59.
------1-2-----0-
-----0-2-----0-0
---------130--1-
2-2-3-2-----3-2-
---1------1-2---
-3-1-0-6-----4-2
-----4-53-3--151
3-3----3134-----
-------1--------
---3-6-5-4-3-5-4
---------3-21-0-
---5-1----2257--
---1------------
-------3--------
----------------

*** Life<FredkinCell> 22x18 ***

Generation = 0, Population = 15.
------------------
------------------
------------------
------------0-----
------0--------0--
--0------0--------
------------------
------------------
----------0-------
-----------0------
-----0------------
------------------
------------------
------------------
---------0--------
------0--0--------
----------------0-
------------------
---------------0--
------------------
------------------
-------------0--0-

Generation = 16, Population = 45.
---------3------0-
------------------
---------------1--
--5-----0---------
--------1-----3---
-----3------13--2-
----------1-------
-------------5--3-
----0-----2-------
--12--------------
------1--2-----4--
------------1-----
----------------1-
------5--3--------
-----2---1-3------
-----4--3--4--5---
0---3-------------
------------------
------------------
-----------05-----
------3---2----3--
012-2--1-2--------

Generation = 32, Population = 53.
---------7--------
------2--7--------
-----6----------8-
------6----6------
6--------50-7-----
--67----+------8--
------------------
--3------6---7--9-
----4-5--------8+-
-----6------62--+6
-----------4------
------------------
---------------9--
------------------
---5-----------64-
4--9--6--7--9--9--
---------48---7---
------------3-----
------1--7--------
--4------9--------
-----2------------
-------2--66--9--6

*** Life<FredkinCell> 20x9 ***

Generation = 0, Population = 16.
0--------
------0--
-----0---
---------
---------
---------
----0----
---------
0--------
-0-------
---0-----
-----0---
--------0
------0--
---------
-----0---
-0-------
----0----
--0------
0------0-

Generation = 15, Population = 95.
22-432-2-
6-4223--2
46-1----1
---2-1-2-
-410-5-1-
01-2-4-04
-453-5-31
--0--2--0
--6--32-0
---38-5-3
-2-5352-3
2---3--72
-3--3-52-
--33-1--4
---3232-3
2--0-24-2
-4121---4
---436553
65--6-3-5
-64----24

*** Life<FredkinCell> 21x7 ***

Generation = 0, Population = 11.
-----0-
-------
------0
-------
-------
-------
-------
--0----
-------
-------
--0----
-------
-------
-----0-
-0-----
-------
-------
------0
--0----
------0
0---0--

Generation = 13, Population = 71.
-1-0---
001-010
134-4-2
101-1-0
----5--
1------
-1-----
00--1--
43-1-2-
105--23
23-11--
21103--
-1-0---
--1--01
3-4-42-
224--12
--50---
-0---2-
1-323-5
-0-04-2
0---5--

*** Life<FredkinCell> 25x20 ***

Generation = 0, Population = 19.
--------------------
------------------0-
--------------------
--------0-----------
--------------0-----
------0----------0--
--0-----------------
--------------------
---0----------------
--------------------
-----0------0-------
--------------------
--------0-------0---
---0----------------
-----0--------------
--------------------
------------------0-
-0-----------0------
--------------------
--------------------
--------------------
--------------------
-----------0------0-
--------------------
-------0------------

Generation = 10, Population = 158.
01231-------0-3-----
0---0---0------3---0
--0---001-1-0-3---1-
--00-----1----11-3--
------0-2---0---4-5-
-12--1-00--101--03--
--2----0---10---1---
00-2-----0---000----
---------01-----0---
---1----0--1---00---
2-2---0-6-----10--1-
-3-2------00-1---00-
1---1-1---010---0-0-
-2--14---1---1-0---0
----2--12133-1-00---
---3--0--2-1-----0-0
--1--0-010-101--0-0-
-------0---2-----0-0
-----1--22-2----0-0-
---1-----0---------0
---1--01-2--10--2-01
-0---1--------------
-0-4-0-0---1---3-1-0
---1----------------
---0-0----0--0202101

Generation = 20, Population = 178.
24---5--210-0-5-2-0-
45-5-0--524--2---31-
---343-----00-----1-
--1-------2-1-------
-1--210341-2--3-6-70
--4-35-----3142--73-
--6----4-4--4-21---0
------2-3-------3---
2--1-3-32-3-1---333-
-51----33-12-2------
5----03-+26-33-21252
----1-------3-------
------6---17--12--61
------14---4--1--1--
--3--1-5-2--1401-205
--------------------
--1--0--2-22--1-1-4-
---1--23---2-212-2--
---4--2-83---04-2-44
----1-------0-------
-105-132-42-4----23-
--1----0--13-2---410
--0738---06-5-----2-
--------0-----------
-1---203-0-0--2----2

Generation = 30, Population = 220.
35-647-42-43--63-1-2
-7--6-416-65---8---5
---444-----3--+-53-6
-02444--3-2--3-----1
5-4-5-0-656-43--7-83
--+--57-----4----85-
---6-------+5-336-5-
32-332--------23----
444-34-4----57---6-6
7+6----6-----6--5-2-
---34457-3+7-7-623--
331------5-2----0-4-
5-42-4+3-----255----
55-64----4-9--2-----
13--84--7-8-5-3---2-
-117---1----15---14-
--5--33-2----35---6-
--------4-2-----3--5
-0-60-76+--74-53--6-
-115--2-3-12-41--133
-7-7759-4---87--353-
23-7-35-25-8-5--25-4
--29--9-------672--1
2--201---3-1------24
54--3-2-4---1-3--6--

*** Life<FredkinCell> 15x20 ***

Generation = 0, Population = 11.
--------------------
--------------00----
--------------------
0-------------------
--------------------
--------------------
--------------------
------------------0-
--------------0-----
0--------0-------0--
-----------0----0---
--------------------
--------------------
--------0-----------
--------------------

Generation = 14, Population = 141.
-------11010-1-0----
01-22-----3---46-1--
-----10--2-131---0--
-0-0-01-121--0-211-2
---01--0---2--21---0
2--0-10-----5374341-
-11--0---2-2-1--11-3
0-1-1-21-1-10--42-4-
0--1---0-0-4-1-2-132
2-22--235-241123----
-----3-2-410-2---5-3
1---22---2--2--1121-
---0-0-3-2-330-4--00
--1----22---2-5-0333
-1-0-1-1-1-3-02011--

*** Life<FredkinCell> 16x6 ***

Generation = 0, Population = 12.
------
------
------
-----0
------
-----0
0-----
-----0
-0--0-
------
--0---
------
---0-0
------
-00---
-----0

Generation = 17, Population = 52.
3424-1
---103
14----
-40---
-142--
04-303
3552--
---50-
6--882
0506--
---3-4
-4-30-
3---13
00----
-32-55
0-020-

*** Life<FredkinCell> 26x16 ***

Generation = 0, Population = 18.
----------------
----------------
-------------0--
--------------0-
----------------
----------0-----
---------0------
----------------
-------------0--
------0---------
0---------------
----------------
----------------
---0---0--------
----------------
----0-----------
-------------0--
----------------
----------------
-------0--------
----------------
-------0--------
------0--00-----
-0--------------
----------------
---------0------

Generation = 11, Population = 204.
-0----0---0-0-0-
--0--0-0---0----
----0-010-----0-
---1101-00-0---0
---0--00-0--0---
--22-0-10110-0--
-002--01-0--0-0-
--1-0----0---0-0
1-21-2---2----0-
-2-21-02000--0--
--2--23--11-0--1
-00-211--1--1-1-
1-00-0-0102---0-
-1-11013-0010022
2-10-2--011--10-
41--10---21--01-
2---01-302-30-0-
11-2------021001
--1----20-1-0100
-2--2-300201-200
02200-1-042---1-
03---103-5-1--0-
-------30-4-2-1-
0---25--060----0
12--0-200---03--
-101110--1000-0-

*** Life<FredkinCell> 19x20 ***

Generation = 0, Population = 11.
--------------------
-0-----0------------
0-------------------
--------------------
--------------------
-----0------------0-
--------------------
--------------------
---0------0---------
--------------------
-------0------------
--------------------
----------0---------
----------0---------
0-------------------
--------------------
--------------------
--------------------
--------------------

*** Life<FredkinCell> 15x12 ***

Generation = 0, Population = 20.
--------0-00
-0--0------0
----0-------
------------
------------
--0---0-----
---------0--
-------0----
--0---------
0---------0-
-------00---
------------
---00-------
------0--0--
------------

Generation = 15, Population = 100.
4413465--3-3
44-38--71---
-3004---2-6-
---131--3-23
-2--21332--3
5-3--1---3-3
-232-7583--1
-252-4--2-32
732--0-53-0-
22--6241--7-
0--3-2--46-2
-04-1203171-
-25624--502-
4-4--3---33-
-1----1-3--1

Generation = 30, Population = 77.
5-5-9-7--8+-
-85-+-4-6-3+
6----1--21-6
--2--6---1-5
4--13-----3-
9+83--4-+35+
-5----9--6-4
7475--433-55
+--6---75-4-
94------92-8
5---------38
-2----2--8-2
-5-8---5-3--
76-43--8---4
---5---6----

*** Life<FredkinCell> 19x19 ***

Generation = 0, Population = 13.
-------------------
-----------------0-
-0-----------------
-------------------
-------------------
---------00--------
-------------------
-------------------
----------------0--
--0----------------
------0----------0-
----------------0--
---0---------------
-------------------
-------------------
---0---------------
-------------------
--------------0----
---------------0---

*** Life<FredkinCell> 16x19 ***

Generation = 0, Population = 20.
---------0------0--
------------0-----0
----------------0--
-------------------
-------------------
----0----0--------0
----------0--------
-------------------
-----------------0-
-------------------
--------0----------
-------------------
---00----0--0------
-------------------
--00--------------0
--------0-------0--

Generation = 14, Population = 122.
-2--0-0-0-431---3--
1-----0---0-4-2-4--
14---2--2640----3--
1-0-----0---------2
-1----0-----212-2--
3-3-2-------6-2---3
23---4--4------1--2
1----00-3---232---0
114-2--02-1---2---1
---0--103--0---1---
3--632---7-----1-2-
00---0---43-201--1-
--5423-24--2-3-4-41
1-304-31-211--415-7
-3-----0-21--2-1---
1----130-330-0----7

Generation = 28, Population = 139.
2----4---37-5-55--9
-----2--463--36---8
66--92-3--9--55-6-+
-----2--3---13--5-4
044---4+---5----46-
-4----4-555---6-859
--698-3----5---1-35
-1------34--6-3--32
-4-65-10-523-17-62-
----623-55---06-4-8
64--63224--5---3---
-4---3---55--44-826
---8---3--9-6668+7-
6-6-+36--54--2----+
--+7-8445-66----5-8
-1----5-84+---4-40+

*** Life<FredkinCell> 19x9 ***

Generation = 0, Population = 18.
-------0-
-0-------
0--------
-0-0-----
---------
-0-------
-----0---
-----0---
---------
-------0-
--0------
---------
---0--0--
---------
0-0--0---
----0----
---------
------0--
-----0---

Generation = 20, Population = 72.
765------
--1--+-22
2--2-93--
-4-22--7-
44-4-616-
--1---2-1
416-1-4--
1--+---02
----35431
-3-3--2--
3-----2--
1---21-41
1--5-51--
--5--2--3
----9394-
--50--2--
---4----0
512-1--03
5-----3--

*** Life<FredkinCell> 26x9 ***

Generation = 0, Population = 15.
-----0---
---------
---------
---------
---------
---------
-----0---
---------
------0--
---------
---------
---------
---------
0--------
---------
-------0-
-0-0----0
---------
-----0---
-------0-
-------0-
---------
0--------
0---0----
---------
------0--

Generation = 18, Population = 95.
-2-1--0--
0-1----1-
--------0
1----2---
10----6--
4---4--1-
1--132-2-
5--------
-6-33--33
1-----4-2
--2--2--1
1-3-2-2-2
2----3---
--353-31-
41123-32-
262----1-
44925-6-5
-----1---
----3-6-1
-4-------
-265118-4
--5142-64
63925---7
4---5--6-
--2--2--3
3-----5-2

Generation = 36, Population = 81.
-86-7--42
--63--276
54-----5-
--6-6---1
7-----+--
8-137---2
-------4-
9-----556
+9-7-+5--
-------6+
-------34
----7----
59-4+6-16
6-3-7-9-4
-7--7-4--
-------8-
97+-8----
--6-4-8-4
-4-3-6---
--66----+
79++-----
----+----
----9++--
---7-----
-7-1-----
8---5----

*** Life<FredkinCell> 22x20 ***

Generation = 0, Population = 20.
--------------------
--------------------
---------0---0------
-0------------------
---------0----------
--------------------
----------0--0------
--------------------
--------------0-----
--------------------
---0---0-------0----
--------------------
---------------0----
--------------------
------------0-------
--------------------
------------------0-
-0--0---------------
-------------0------
------------------00
--------------0-----
---0----------------

*** Life<FredkinCell> 21x5 ***

Generation = 0, Population = 15.
----0
-----
-0---
0----
-----
-----
-----
-----
0----
----0
0----
0--0-
-----
-0-0-
---0-
---0-
--0--
----0
-----
-----
----0

Generation = 12, Population = 51.
----1
10131
-4-3-
--4-3
-21--
1225-
---22
1--5-
-3--1
-----
-18-2
---1-
3-1-5
-2-+5
-2545
--1-1
---14
5274-
----4
2-333
---54

*** Life<FredkinCell> 22x18 ***

Generation = 0, Population = 17.
------------------
----------------0-
-----------0------
-0----------------
----0-------------
------------------
------------------
--0--------0------
------------------
-----------------0
----------------0-
------------------
----------0-------
------------------
-----------0------
------------------
--0---------------
------------------
----------0-------
-----------0------
----------0-------
-----0------00----

Generation = 11, Population = 181.
-0111-1--0----0-1-
0200---01--110--0-
120-1--02-13----1-
02-0-0022-034----2
--42-0-2-1533----1
-----21--123-020-4
--002-0--23222-0--
-321-42-----1-0---
-00-3-2-2-201-00--
---110----210--01-
-0-020-023-0-2-000
1--1--0-010---01--
-0--2----0-51002--
----020-0022----0-
---1--0------10--1
------0--22---2-0-
0----0---02---002-
002--------3-3---0
-00000-0-1--42--2-
0-00-0----1----031
--1--01-------10-0
012----2-----2--81

Generation = 22, Population = 181.
-2-452541------0-2
2-3-330-------1---
--4-241--03--5----
-45--3-5---765--23
--7312-51-755-----
-211-311-44+--53-8
211-51101--54-1---
-46----4-4-63----1
----5----251-10-1-
432--03--234---4--
22--50---64--3-23-
35--30-4-5-+----01
1-61--------6--4-1
--43-3---234--2--2
1-325----4--3-0-32
-1-1-3--14-3-----4
3-134013--5-----3-
-----1102-----2---
01----22---------3
-2--2-11612-----6-
1--03-30-041---0--
--2-466-13535---+2

*** Life<FredkinCell> 15x17 ***

Generation = 0, Population = 16.
----------------0
------0----------
-0-------------0-
-----------0-----
-----------------
-----------------
----0------------
-----------------
---------0-------
0----------------
-----------------
-----------0-----
-------------0---
-00--------------
0-------0-00-----

Generation = 10, Population = 104.
--0-02------0----
---0--------2--20
-1-121--0102---3-
--2--30------21--
2-01-0-1110010-22
2-------2------2-
1-3-0-2--2413--1-
------1-0--------
-3-0--0--0-5--02-
0---2-1---1----2-
13-1-1--2-2----31
0-3-3---010--3---
100-1-1002-2-0-2-
4-----1-1--30--3-
30501-04-012---1-

Generation = 20, Population = 68.
4-124-3------1---
----0-----------3
4-5----4-22---2--
---4---4---0-----
6-1--2---2-------
--------5---0-2-1
---2--4---6--21-4
-----------------
---------1---2---
----------5--04--
---51-214-------3
---2---1---2-----
---18-512-5---3-5
--------31---2--7
32+3352+7--3----7

Generation = 30, Population = 118.
-14---825967-----
2---3---------736
6663-9--35---75--
1-6---2---2-244--
-2--7--363--3---+
3-4-1--2--32---2-
53-----85--3-54-6
4-2-12--5-4--14--
-3424627-2+9-5335
2-54----4-------+
--5--3945--+---74
056-6-4-4----5--1
633-+---37-5-6-4-
4-3----6--39--4--
--+4675-9-46----+

*** Life<FredkinCell> 19x12 ***

Generation = 0, Population = 19.
--------0---
-----0------
------------
--0---0-----
------------
------------
------------
-0-0--0-----
---------0--
------------
---0--00----
-----0------
-----------0
-0-0---0----
------------
----------0-
--0---------
------------
---0--------

Generation = 15, Population = 115.
----0434-4--
4-453-52--3-
-23--2-142-2
-3-4--1--221
01--004-5---
0-3-2-26--11
34--31-1-122
-332-304--0-
-53-3153----
3--40-5-0-0-
-2---54----3
-4-3--------
20662----4-2
1--403130---
30--2---2--2
-23-2-3---3-
5024--3171--
2426-12-03--
-24----4--2-

Generation = 30, Population = 109.
--2666--+7--
--4----8-7-8
857-----6--6
5---59-4---5
---+-4-58-58
--6+----26--
+-62--63--36
---9-+26--5-
-767-5-7--4-
5-2+1---092-
-5--8-9---44
-8-8754-5--4
78-+464+--9-
4268-818----
9--3-5---474
--4-+59-----
----7-+3+43-
---9467---4-
1--54--+36--

*** Life<FredkinCell> 25x14 ***

Generation = 0, Population = 15.
--------------
--------------
------0-------
------0-------
--------------
---0---------0
--------------
--------------
-------0------
--------------
-0------------
------------0-
----0----0----
--------------
--------------
----0-----0---
---0----------
--------------
--------------
--------------
--------------
--------------
---0-0--------
--------------
--0-----------

Generation = 13, Population = 194.
11-121-001--00
2-0101-001121-
233-3----0--10
40-32--33123-2
-222---3-1--0-
01-1--32-11-3-
2-0--2-112010-
0-1252---1-242
013-30--0---2-
---2--3120--02
-31322-0-4--12
2----020703-11
---114652---31
11----110--2--
-0-3-5--11-0--
10-130-0-0--01
1-76--320-001-
-0---0---0-0--
-3-211-00-0--1
-0101-001-0---
2-5--620---1--
00-0----0-----
046-11---2130-
1-1---303-2--0
-233--4-424-1-

Generation = 26, Population = 172.
3-3-5----4-4--
331211-0-3----
--7-52----6--6
----738--2---5
-644--863--210
36---4-6352--5
-5---4-----6-3
116-+--34-3-4-
--53--0--52-33
13471-543-3-26
--3-47506-11--
409-32-2+16--7
3------7-6-69-
-5-65522-2----
--2---3------2
21----1--151--
--+6---62-----
121-345---1514
-6---412-531-2
1--3-1-1---14-
5-8-39---0--32
---114-6--31--
79+-4-----4--3
3-1--1725--1-2
2-686-839--3--

*** Life<FredkinCell> 20x8 ***

Generation = 0, Population = 13.
---0-0-0
-----0--
00-0----
--------
--------
--------
--------
--------
--------
--------
--------
------00
--------
----0---
--------
--------
--------
--0-----
--------
------00

Generation = 14, Population = 73.
----35--
-2-7-6-2
-36-4212
-3301--5
-9-4251-
2-0-232-
--------
-12-0--4
-2-3151-
--34---2
-52-0001
3-6-----
32020---
---431--
130----0
2000--1-
11-0----
-24-1---
--------
64---4--

*** Life<FredkinCell> 30x19 ***

Generation = 0, Population = 13.
--------0----------
-----0------------0
-------------------
-----0-------------
-------------------
-------------------
----0--------------
--------0----------
-------------------
-------------------
-------------------
-------------------
--------0-------0--
-------------------
-------------------
-------------------
-------------------
-------------------
-------------------
---0---------------
----------------0--
-------------------
-------------------
-------------------
-------------------
-------------------
-------------0-----
-------------------
--0----------------
--------------0----

Generation = 10, Population = 148.
----0-0-------2-0-0
-0-0-0--1-015220---
0---0---3----------
-0---1-2--1111-0--0
--0---1-3-1-0-0---1
00-1-2-1-----0----0
1---0-2-------0-2--
0-1-----------1---1
--0---1-3-1-0------
0----2-0----------0
0-------------0----
-0-0---0----------0
0-0-0-1---0-0---0--
---0-0--2----------
0-0---0-2-----0----
------0---0--------
----0--------0-----
---0----0--0-------
--0--------1--100--
-0---0---0---11----
0---0-------034-0-0
---0-------00-3-1--
--------------0-1--
------------0-2-0--
0---00-------1---2-
---0----------1----
--011--1--00----3--
-0---10---------2--
--0--11-0---000--10
---01-0-1-----0-2-0

Generation = 20, Population = 125.
--1-----2---------2
--3-012-31---------
----0-1---1---0----
-----4122-----0--5-
----2-2-----1-4---2
--2-3----4-------0-
------2-3----1-----
--4485---0--5----12
--2-----3-----3-2--
-----4--------6---1
--------702------02
-2----2-21---------
0-----2-5-0-------3
-1---2---11---5-1--
----0-------0------
----------13------0
0-2-0-------0-2----
-0---2---0------1-1
----0---01-------1-
-0-----010----62---
--0-1---2-2-----1--
---0-0------------1
00------10---0-----
----01-----31------
1-----5-0-------3--
1------12----------
-1--3--------1-----
0------------------
----0-------4-1----
--05--------2------

*** Life<FredkinCell> 28x18 ***

Generation = 0, Population = 11.
------------------
--0---------------
------------------
---------0--------
------------------
---------0--------
------------------
------------------
------------------
------------------
-----------0-0----
------------------
-----0------------
------------------
------------------
------------------
------------------
------------------
------------------
---------0--------
------------------
---0--------------
--------0---------
----0-------------
------------------
------------------
0-----------------
------------------

Generation = 14, Population = 218.
---0-2-----------1
-2--------4----012
-0-----0-------4--
---1----0----114--
-----1---2---1----
------2--1--15----
-0-1---0---1-4----
----02-0--12-1----
-1-1-0--00-0---0--
--0310-206-1---1--
---2-003-20--0---2
0012-0-1-1---1---0
11-004-110-10--0-0
-2-1-0-014-2---1-0
31-3-021--13-00--2
1--4-012-102-0-1-2
0-12-0--21--11-00-
0-1-21-103-01--1-1
0-2-2--2--12--12--
1-1---31-00--20--1
2-012-0-21--12-0-0
2--254--21--3--00-
500-22--1-23-2-0--
-314-050-43---1--2
0-11---0--0100----
-2-202--3-111---10
1----0------1-0---
---2--1-1-1-3210--

*** Life<FredkinCell> 15x17 ***

Generation = 0, Population = 18.
------0----------
---------0-------
--------------0--
------0----------
-----------------
-----------------
------0------0---
-----------------
-----------------
-------0----0----
00---------------
-00---0-----0----
---------------0-
---0--0----------
--0--------------

