27

77 45
18
10 26
1 32
8 2
74 37
49 33
54 5
73 13
37 2
27 21
29 35
32 2
56 30
25 39
25 29
22 16
29 17
46 30
34 39
77 120

76 44
7
41 32
44 20
34 14
31 31
65 29
65 11
55 29
53 119

15 87
11
2 85
7 31
3 68
7 17
1 22
5 26
7 21
9 18
8 74
0 30
10 64
144 152

8 8
6
5 7
6 6
7 1
3 6
7 4
6 3
80 70

88 61
29
48 22
36 2
84 33
76 22
78 20
21 29
20 60
43 55
63 53
28 9
39 57
30 17
29 57
73 36
30 10
23 57
65 57
39 50
82 17
75 35
69 41
46 33
47 31
13 20
26 28
22 41
40 12
64 5
37 11
80 103

53 66
27
22 46
5 40
29 59
11 50
13 12
23 62
11 24
5 33
31 50
4 58
10 51
46 40
46 24
50 33
44 3
15 61
32 11
48 7
20 9
14 41
33 10
3 0
44 57
46 29
20 51
37 12
25 49
142 132

58 87
12
13 0
28 11
23 31
4 34
32 14
6 83
30 60
54 67
13 15
5 43
38 1
3 28
190 192

12 61
21
6 58
3 27
3 47
5 44
7 48
9 42
0 21
0 34
9 8
8 34
5 50
8 25
7 40
2 56
11 37
4 26
4 19
4 4
2 48
1 8
0 18
26 115

28 11
19
4 4
19 7
2 6
1 4
25 6
19 9
0 8
15 8
23 8
17 8
22 0
22 2
18 9
1 1
17 10
5 5
16 7
26 2
25 10
49 56

71 78
6
58 35
12 26
27 75
7 2
57 50
60 21
198 139

76 90
7
47 0
66 48
32 18
16 23
35 9
52 33
67 47
73 49

40 87
22
19 71
30 63
28 55
21 80
9 3
26 3
16 84
7 9
13 31
34 67
18 77
5 75
11 44
16 18
35 75
22 80
30 61
25 43
2 56
3 31
26 2
15 57
191 53

95 22
22
21 4
81 18
63 0
92 2
50 4
8 21
75 19
7 12
33 7
45 1
22 14
14 18
73 13
19 13
10 12
66 1
33 8
30 7
70 14
86 13
12 17
24 15
198 45

96 98
3
48 16
61 34
90 91
56 64

9 6
16
4 1
8 3
7 3
0 1
3 2
4 1
5 4
0 1
5 4
5 0
7 5
4 3
5 2
0 5
7 0
0 2
180 130

63 24
18
23 23
36 4
58 22
46 5
32 19
38 11
55 15
38 20
16 2
47 20
56 13
21 6
14 2
41 1
53 23
37 16
17 1
55 0
190 135

43 20
5
7 19
32 18
18 6
39 0
26 0
183 127

45 91
26
4 39
37 37
9 9
39 73
40 61
34 40
17 40
38 22
39 44
24 35
33 28
25 66
2 24
37 53
6 76
22 66
28 5
27 63
10 34
8 48
6 27
21 28
42 2
34 35
22 8
17 72
98 80

86 58
29
22 46
4 44
41 0
49 46
84 8
53 25
85 0
51 35
31 21
76 8
33 15
64 46
85 4
76 8
61 56
34 30
12 14
77 18
76 16
14 0
15 45
71 31
75 13
67 23
84 41
48 52
38 16
19 51
57 56
1 97

65 1
23
8 0
37 0
8 0
2 0
55 0
37 0
59 0
55 0
11 0
46 0
18 0
61 0
52 0
24 0
23 0
21 0
2 0
48 0
9 0
11 0
16 0
62 0
51 0
81 29

57 83
9
36 17
15 29
42 61
14 66
41 31
43 30
52 66
32 31
52 61
149 191

62 47
4
20 1
46 28
22 4
7 28
116 86

60 97
25
45 0
50 13
14 89
4 62
30 26
24 59
10 88
54 35
45 54
10 34
9 21
13 87
15 91
16 76
1 43
8 7
40 59
0 26
26 49
54 87
16 78
48 38
25 68
33 70
19 71
45 106

55 48
20
19 39
51 45
25 8
6 45
51 6
41 32
48 17
12 18
32 24
9 5
5 37
34 16
51 38
42 27
51 46
7 39
23 41
48 32
13 0
15 33
3 185

43 85
1
11 24
1 80

64 45
6
4 14
39 26
18 38
47 30
34 3
24 19
93 49

99 78
30
13 21
88 46
36 26
55 17
67 66
0 77
78 3
96 45
41 47
4 24
80 57
33 5
39 27
10 26
74 5
37 55
89 67
62 48
33 46
42 71
71 12
15 23
16 2
0 17
43 23
60 0
59 52
50 37
60 0
95 37
104 33
