*** Life<FredkinCell> 29x12 ***

Generation = 0, Population = 1.
------------
------------
------------
------------
------------
------------
------------
------------
------------
------------
------------
------------
------------
------------
------------
------------
------------
------------
------------
------------
------------
------------
------------
------------
------------
------------
--------0---
------------
------------

Generation = 4, Population = 3.
------------
------------
------------
------------
------------
------------
------------
------------
------------
------------
------------
------------
------------
------------
------------
------------
------------
------------
------------
------------
------------
------------
--------0---
------------
------------
------------
----0-------
------------
--------0---

Generation = 8, Population = 4.
------------
------------
------------
------------
------------
------------
------------
------------
------------
------------
------------
------------
------------
------------
------------
------------
------------
------------
--------0---
------------
------------
------------
------------
------------
--------0---
------------
0-------0---
------------
------------

Generation = 12, Population = 7.
------------
------------
------------
------------
------------
------------
------------
------------
------------
------------
------------
------------
------------
------------
--------0---
------------
------------
------------
----0-------
------------
--------0---
------------
0-----------
------------
----0-------
------------
--0---------
------------
0-----------

Generation = 16, Population = 4.
------------
------------
------------
------------
------------
------------
------------
------------
------------
------------
--------0---
------------
------------
------------
------------
------------
--------0---
------------
------------
------------
------------
------------
------------
------------
------------
------------
0-----0-----
------------
------------

*** Life<FredkinCell> 28x35 ***

Generation = 0, Population = 13.
---------------0------------0------
-----------------------------------
-----------------------------------
-----------------------------------
-----------------------------------
-----------------------------------
-------------------0--------0-----0
-----------------------------------
-----------------------0-----------
-----------------------------------
-----------------------------------
----------0-----------0------------
-----------------------------------
-----------------------------------
-----------------------------------
-----------------------------------
----------------------------0------
-----------------------------------
-----------------------------------
-----------------------------------
----------------------------0------
-----------------------------------
---------------------0---------0---
-----------------------------------
-----------------------------------
-----------------------0-----------
-----------------------------------
-----------------------------------

Generation = 2, Population = 50.
-------------0-0-0--------0-0-0----
-----------------------------------
---------------0------------0------
-----------------------------------
-------------------0--------0-----0
-----------------------------------
-----------------0---0-0--0---0-0-0
-----------------------------------
-------------------0-0---0--0-----0
----------0-----------0------------
-----------------------0-----------
--------0---0-------0---0----------
-----------------------------------
----------0-----------0------------
----------------------------0------
-----------------------------------
--------------------------0---0----
-----------------------------------
-----------------------------------
-----------------------------------
---------------------0----0---00---
-----------------------------------
-------------------0---0----00---0-
-----------------------0-----------
---------------------0---------0---
---------------------0---0---------
-----------------------------------
-----------------------0-----------

Generation = 4, Population = 47.
-----------0-------0----0-------0--
-----------------------------------
---------------0---0--------------0
-----------------------------------
---------------0-------0----0------
-----------------------------------
---------------0-------01-----0----
----------0-----------0------------
-------------------0-------1-------
-----------------------------------
-------------------0--------0-----0
------0-------0---0-------0--------
-----------------------0----0------
-----------------------------------
-----------------------------------
----------0-----------0------------
------------------------0---0---0--
-----------------------------------
---------------------0---------0---
-----------------------------------
------------------------0---0---1--
-----------------------1-----------
-----------------0-------0-1-------
-----------------------------------
----------------------------0------
-------------------0-------0-------
---------------------1---------0---
-----------------------0-----------

Generation = 6, Population = 152.
---------0-0-0-0-0---00-0-0---0-0--
-----------------------------------
-----------0-0-0---0-0-00---0-----0
-----------------------------------
-------------0---0-0-0-0100-------0
----------0-----------0------------
-------------0-0-0-0-002-100----0--
--------0---0-------0---1----------
---------------0-0-0-0-000--100---0
------0---0---0---0---0---0--------
-----------------0-0-0-0--110-0-0-0
----0---0---0-------0---0---0------
-------------------0-0---01-0-0---0
------0---0---0---0---0---0--------
-----------------------00-------0--
--------0---0-------0---1----------
---------------------01--------1--0
----------0-----------0------------
-------------------0---0-----0---0-
-----------------------0-----------
-----------------0---00--1-1---2--0
---------------------0---1---------
---------------0---0---210-1-1--0--
-------------------0---1---1-------
-----------------0---1---000--00---
-----------------0---2-0-0---0-----
-------------------1---1----00---0-
-------------------0-1-0-0-0-------

Generation = 8, Population = 41.
-------0-----------01-------0------
-----------------------------------
-----------------------------------
----------0-----------0------------
-----------------------------------
-----------------------------------
-----------0---0----1-----02------0
-----------------------------------
-------------------------------1---
-----------------------------------
-----------------------------------
--0-----------0---0-----------0----
----------------------------2------
-----------------------------------
-------------------0-0------0--1--0
-----------------------------------
--------------------0--1----------0
-----------------------0-----------
-----------------------------------
----------0-----------0------------
--------------------1-------------0
-----------------------------------
-------------0---------2-----1-1---
-----------------------3-----------
----------------------------1------
---------------0---------------1---
---------------------1---------0---
-----------------------------------

Generation = 10, Population = 144.
-----0-0-0-------012321---0-0-0----
----------0-----------0------------
-------0-----------00-------0------
--------0---0-------0---0----------
-----------0---0----0-----10------0
----------0-----------1------------
---------0-------00---1-23--10-00-0
-----------------------------------
-----------0---0----0-----01-0---00
--0-----------0---0-----------0----
----------------------------0--0---
0---0-------0-------0-------1---0--
-------------------0-0----1-2-10--0
--0-----------0---0-----------0----
-----------------0-000----0-011-11-
-----------------------1-----------
------------------01--2--0--0--10--
----------0----------02--0---------
-----------------------2-----------
--------0---0-------1--20----------
-------------0----0---20-----0-21-0
----------0-----------02-----------
-----------0---0----00---0-221-1-00
---------------0-----0---0-----1---
-------------0-------2-1--0--11----
-------------0---1-----1-----1---0-
-------------------2---1----10---0-
---------------0---------------1---

Generation = 12, Population = 140.
---0-------0---01------1--------0--
-----------------------------------
-------0---0---0---2------010-----0
------0-------0---0-------1--------
-------0-----------12-------1--0---
-----------------------------------
-------0---0---01--1--334------22--
--0-------0---0---1---1-------0----
---------------------------32------
-----------------------------------
-----------0---0---010----122--0---
0-----0---0---0---0---0---1-------1
--------------------1--00------20-0
-----------------------0-----------
---------------0-0-----201-0--1----
--0-------0---0---1---0-------1----
----------------0--31---1--10-1-2-0
-------------------1-------0-------
-------------0-----0-1-4----00----0
------0-------0---1----4--0--------
----------------0---2--20---1-1-3-0
---------------1-------2-------0---
---------0-------0-2-0---2-----3-2-
----------0--------1--1----2-------
--------------------1---1-------0-0
-----------0-------1-------0-------
-------------1---1---1-3-0-1-0-----
---------------0-------2-------1---

Generation = 14, Population = 306.
-0-0-0-0-0----1-3212-2-1-0000-0-0--
------0-------0---0-------1--------
---0-0-0---0---01--210-1110--100--0
----0---0---0-------1---0---0------
-----0---0------000--1-11--21110100
--0---0---0-----------3---0---0----
-----0-0------0---11--3-6513-104-10
0---0---0---------------3---1---1--
-------0--------0---001111-5412-0--
0-0---0-------------------2---0---0
---------0--------02120--112--10101
0-0-0------------------0----2---1-3
-----------0-----0111--02---30-420-
0-0---0--------------0---11---1---1
-------------0-000---10---0--2322--
0---0---0----------0---12--01---1--
-------------011---3----1--1--3---0
--0---0---0------0---222-11--11----
-----------0---0-0-------01---100-0
----0---0---0--1---021-411-10--0---
---------0---01--1---1-4-----0-4-00
------0---0--01--101-214-200-0---1-
-------0---0---210---0-4---42215-2-
--------0--10--1-1-300-512-2-0-3---
---------0---1----01---3--00-12200-
---------01--2-0-2-1-402-2-2-2-2---
-----------1--------11--0----0-20-0
-----------0-1-0-1-1-2-4-1-1-1-1-0-

Generation = 16, Population = 50.
------------0-------------2-2--0---
-----------------------------------
-----------------------------------
----------0-----------0------------
----------------------------3------
-----------------------------------
---0--------0-----3-22-3--3----6---
-----------------------------------
-------0-----------1--------6--1--2
-----------------------1-----------
-----------------------------------
----0-0-------------------3-----1--
-----------------------------------
-----------------------------------
---------------2------------1------
-----------------------3-----------
------------1--3----------0-1------
-----------------------------------
---------------------1---------2---
-----------------------------------
------------0-------------1-1------
-----------------------------------
-----0---------2---3---4----2----42
-----------------------------------
-----------------------3----1------
-------0-----------------------2---
-----------------------------------
----------1-----------0------------

Generation = 18, Population = 163.
----------0-0-2---------0----110-0-
----------0-----------1------------
------------0-------------0----1---
--------0---0-------2---0----------
---0--------0-----1-31-2------20---
----------0-----------4------------
-0---0-0--0---0-2-3-444376--22-6-21
-----------------------1-----------
---0-0---0--0----01-2--2-----231222
----0-0--------------0---03-----0--
-------0-----------2--------3--0--2
--0-0-0-0--------------10---3-0---4
---------------0------------3------
----0-0----------------0--1-----0--
------------00-2-1----------1-4----
---------------------0---0---------
----------0--223-0---1--2-0---42---
-----------------------3-----------
---------------1---1---5-----1---0-
-----------------------------------
-----0----0---10---0-1-41-1---15-01
-----------------------------------
---0---0----00---------4-2----151-4
-------0-----------------------3---
-----0---------0---2-3-3-01-1-2--10
-----0---02-----------0------2---1-
-----------------------4----2------
-------00-1-0-------0-0-0------2---

Generation = 20, Population = 160.
--------0-------4-----2-0--03-1-0--
-----------------------------------
---0--------------0-31-2----1------
------0-------0---1-------3--------
-------0----2------2----1-2-----2-1
-----------------------1-----------
-------01-----0--1-2----78----1----
----0-0---1-----------2---0-----3--
---0-------1---0-------43--67-3----
-------------------1-------1-------
---0--------0--0--2-23-1--3-5--0---
0-0-----0-0-----------13----3-0---6
-------0----0--0---1------2----5--2
-----------------------0-----------
-----------1-------1-2--0------33--
----0-0------------1------00----2--
--------0--12---0--4--4-2-0-1-6-3--
-----------------------------------
-----0-----------1-1---7-1-0-----01
-----------------------4-----------
--------0---0--21-----263-1---3-3--
-------1-----------------------1---
-0-------0-2---2-----0-41--5-337-5-
----------0-----------1------------
------------0------2----1-311---1--
---0------41----------0----3-------
-----1---------0---2---4----2----20
------12------0---0-------0----2---

*** Life<FredkinCell> 31x46 ***

Generation = 0, Population = 25.
----------0---------------------------0-------
----------------------------------------------
----------------------------------------------
----------------------------------------------
----------------------------------------------
-----------0----------------------------------
----------------------------------------------
----------------------------------------------
--------------0-------------------------------
-----------------0---------------0------------
---0-------------------------0----------------
----------------------------------------------
----------------------0-----------------------
-------------------------------0--------------
-------------------0------------0-------------
-------------0--------------------------------
------------------------------------------0---
--------------------------------------0-------
---------------------0------------------------
----------------------------------------------
----------------------------------------------
---------------------------------------0------
----------------------------------------------
--------------------------0--------0----------
---0------------------------------------------
----------------------------------------------
---0-------0-----------------0------------0---
----------------------------------------------
----------------------------------------------
------------------------------------------0---
----------------------------------------------

Generation = 3, Population = 290.
-------0-----0---------------------0-----0----
--------0---0-----------------------0---0-----
---------0---------------------------0-0------
------------0-------------------------0-------
---------0-0-0--------------------------------
--------0-0-0---------------------------------
---------0-0---0-0---------------0------------
---0------0---0---0----------0--0-0-----------
--0-0--------0-----0--------0-00-0-0----------
-0-0-0------0-----0-0-0----0-0010-0-0---------
0-0-0-0------0---0-0-0-0--0-0-0-00-0----------
-0-0-0--------0-0-000-0-0--0-0010-0-----------
--0-0--------0---00110-0-0--010--0------------
---0--------0-0--0-0000-0---01------------0---
-----------0-0-00-0-0110-----------0--0--0-0--
----------0-0-0-00-0--0-----------0--0-00-0-0-
-----------0-0-0--0---0----------0--0-0010-0-0
------------0-0------0-0--------0--0-0-0100-0-
-------------0----0-0-0-0-----------0-0000-0--
-------------------0-0-0-------------0110-0---
--------------------0-0---0--------0-000-0----
---0-----------------0---0-0------0---0-0-0---
--0-0-------------------0-0-0----0-0---0-0----
-0---0-----0-----------0-0-0----0-0-0---0-0---
0-----0---0-0-----------0-0---0--0-0-0-0-0-0--
---------0-0-0-----------0---0-0--0-0---0-0-0-
0-----0-0-0-0-0-------------0-0-0--0---0-000-0
-0---0---0-0-0-------------0-0-0--------00200-
--0-0-----0-0---------------0-0---------00200-
---0-------0-----------------0---------0-000-0
----------------------------------------0---0-

Generation = 6, Population = 335.
----0-0-0-0-0-0-0---------------0-0-0-0-0-0-0-
---------0---0--------------------------------
------0-0-0-0---------------------0-0-0-0-0---
-------0---0---0-0---------------0------------
---0----0-0-----0------------0------0-0-0-----
-----0---0---0-0-0-0-----------0---0----------
-0---0--------0---0---0----0---0------0-------
-------0---0-0-0-0---0-------1-0-0---0--------
---0---00---0---0--1----00---1--00------------
---------0-0---0---1---0---0-1-2-1-0---0------
-----0---00---0--0---100--10--00--10------0---
-------------0-0-0---0-----0-0-1-1-0-00-------
---0---0----0--1---210-001---1--01--0---0---0-
---------0---0-1-1-0-----0---2-0-0-001--0-----
-0---0-------01--000-211-0-0--10--0-------0---
-------0---0---1-1-0-------0---0-000--10--0---
---0-----------0-1-001-100--00--0-------1-----
---------0---0---1--------0--0--01-100--21--0-
---0-----------0-0-0-000---0--0---1---0---1---
-----------0---0--------0---0--0-010-011--10--
-0-0-0-----0-----0-0-0---0---0--0-------0-0-0-
-------------0--------0---0---00-0-011-100---0
-0-0-0-0-0---0-----0---0---0---1--------0-0-0-
--------------------0---0---00--10-0-010-010--
---0-0---0-0---0-----0---0---0---0----0---1---
----------------------0---0---00---0-0-011--0-
---0---0-----0---0-----0---0---0---10---0-----
------------------------0---0----1---010------
-0-0-0-----0---0---------0---0---0----1---3---
--------------------------0--------00-------0-
-0---0---0-0-0-------------0-0-0--------0-2-0-

Generation = 9, Population = 244.
-0-0-------0-0-0---0---------0-0-0------------
--00------0-0-0-0------------00-0-0-----------
--0-0------0-----0----------0-0--0------------
---0------------------0------0----------------
---0---------------0-0-0-------0--------------
--0-0-----0-------010-0-------0-------0-------
---0-----0-0-0----010------------0---0-0------
------0-----0-0----0--0---------0---------0---
-----0-0---0-0-------0-0-------------010---0--
---0--0-0--0----------0---------------200-----
--0-0----01-0-----------------------0----0----
---0-------0--0---------------0------1--------
-----------0-0-1-------1-----1-0--------------
----------010-0-------0----0--0---------1-----
-----0----020--------3---1--1------0---0-0----
---00-0----0--0-----0-0-00----------0---0-1---
--0-00-------0-1-1---2----0---0----------0-0--
---0-------0-00-0-0------------00-------------
----------0---0--1----------0----0-------0-0--
-----------1-0--------0------0------------2---
---------------------0-0------------------1--0
-------------------0--0---------0--------1-00-
-------------1------0------0---2-00-------10-0
---0-------00-0--0--------0-1---20-0--------0-
--0-0-----0-00----0--------0------0---1--04---
---0---------------0--------------0----1-2-0--
----------0-0-----0-0------------0-11----010--
---0---------------0---------0----0--1--------
--0-0-----0-0---------------0-0---0----0-040--
-----------0-----------------0---0-1--0-0030--
--0-0-----------------------------0----0--2---

*** Life<FredkinCell> 29x3 ***

Generation = 0, Population = 13.
---
---
---
-0-
---
--0
---
---
-0-
---
0-0
---
00-
0--
---
---
00-
---
---
0--
-0-
0--
---
---
---
---
---
---
---

*** Life<FredkinCell> 6x24 ***

Generation = 0, Population = 7.
----------------0-------
--0---------------------
---00----0--------------
0---0-------------------
------------------------
------------------------

*** Life<FredkinCell> 16x49 ***

Generation = 0, Population = 17.
-------------------0------------0----------------
-------------------------------------------------
---------------------------------------------0---
-------------------------------------------------
0---------------------------00-------------------
-----------0-------------------------------------
-------------------------------------------------
------------------------------------0-----------0
-------------------------------------------------
----------------------0---0---------0------------
-----------------0---------------------------0---
-------------------------------------------------
-------------------------------------------------
-----0-------------------------------------------
----------------------0----------0---------------
-------------------------------------------------

Generation = 3, Population = 188.
----------------0-----0------0-----0--------0-0--
0----------------0---0------000---0--------0-0-0-
-0---------0------0-0------01100-0--------0-0-0-0
--0-------0-0------0------0000000----------0-0-0-
---0-----0-0-0-----------01211210---0-------0-0-0
--0-----0-0-0-0-----------000000---0-0-------0-0-
-0-------0-0-0--------0---00110---0---0-------0--
0---------0-0----0---0-0-0-000---0-----0---------
-----------0----0-0-0-0---0-0---------------0----
---------------0-0---0-----0-0---0-----0---0-0---
-----0--------0-0-0---0---0-0-----0---0---0-0-0--
----0-0--------0-0-0-010-0-0-----0-0-0-----0-0-0-
---0-0-0--------0-0--010--0-----0-0-0-------0-0--
--0-0-0-0--------0--0-0-0------0-0-0---------0---
---0-0-0-----------0-0-0-0----0-0-0-0------------
----0-0-------------0---0------0---0-------------

Generation = 6, Population = 188.
--0----------0-0-0-0-0-0-0-0-1-00-0-0-0--0-0-0-0-
---------0---0----------------------1-----------0
0-0-0----------0-0-0-0-000---10--10-1--0---0-0---
-------0---0---0------0---0-------0-0-0-------0-0
0-0-0-0------------0-011--12---11--0-----0-------
-----0---0---0---1--0-------0---0-0-0-0-0---0-0-0
0-0-0----------1--------00--11---0---------------
-----0-0---0---0--0-------------0-0-0-0-0---0-0-0
0-0----------0---0---01---11--00-0-------0-------
---0---0-0---1--0-------------0---0-0-0-0-0-0-0-0
0----------1---0---01--10---00-0---0---0---0-----
-0---0---0-0------0-----------0-0-0-0-0-0-----0-0
-------------0---00--0----1--0-------0---0---0---
---0-0-0---0--------0-------0-----0-0-0---------0
---------------01--1-------11----------0---0---0-
-0-0-0-0-0------------1---1---------0------------

Generation = 9, Population = 172.
----------010---------00-0--0-------1--0-0-------
0---------010----0---0-000--00-----0----0--------
-0---------0----0-0---0---00341-------0----------
0-----0-0--------0--00------00------1--------0---
---0-----0----------232------------0210-----0-0--
--0-----0---------01-00---------10--00-------0---
---0-0------------0100-0----1--0210-----0-0-0----
----------------------0----0-0---0-----0-----0---
--------------0-----0---------01-00-----0-0------
---------0---2-0-0----1--0-0---00--0-0-----0-0---
-----0--0-0---0---0--1-21-0-1-0-0---0-0-----0----
0---0-0--0------------1--0--00---0---0-----------
-----0-----0-0-------------0110------------------
--0-------0------0-------0--100----------0---0---
-0---------0---12-1---1-0----0-0--------0-0-0-0-0
--------------0--0---0-0---0--0----------0---0-0-

*** Life<FredkinCell> 3x14 ***

Generation = 0, Population = 17.
-00--0----0000
-0-0---0---0-0
0---0--0-0---0

Generation = 4, Population = 20.
1----0-10--200
-2-0-1---0---1
1-2100--01---4

Generation = 8, Population = 18.
-031---32----0
-------2---4-3
-16--2121--226

Generation = 12, Population = 23.
44-35323-3--3-
---2---3-2---4
2-8314265-3--7

Generation = 16, Population = 20.
6--35--3-53633
---3-3-5-4---8
-2-7---89-4-3-

*** Life<FredkinCell> 17x19 ***

Generation = 0, Population = 1.
-------------------
-------------------
-------------------
-------------------
-------------------
-------------------
-------------------
-------------------
-------------------
-------------------
-------------------
-------------------
-------------------
-------------------
--------------0----
-------------------
-------------------

Generation = 5, Population = 14.
-------------------
-------------------
-------------------
-------------------
-------------------
-------------------
-------------------
-------------------
-------------------
--------------0----
-------------0-0---
--------------0----
-------------------
----------0-------0
---------0-0-----0-
----------0---0---0
-------------0-0---

Generation = 10, Population = 12.
-------------------
-------------------
-------------------
-------------------
--------------0----
-------------------
------------0---0--
-------------------
--------------0----
-------------------
--------------0----
-------------------
------0-----0------
-------------------
----0---0---------0
-------------------
------0---------0--

*** Life<FredkinCell> 27x12 ***

Generation = 0, Population = 14.
----0-------
------------
----00------
------------
------------
-0-------0--
------------
----0-------
------------
------------
----0-------
-------0----
------------
------------
---0--------
------------
------------
-----0------
------------
------------
------------
-----------0
--0---------
------------
------0-----
---0--------
------------

Generation = 1, Population = 52.
---0-0------
-----0------
---0110-----
----00------
-0-------0--
0-0-----0-0-
-0--0----0--
---0-0------
----0-------
----0-------
---0-0-0----
----0-0-0---
-------0----
---0--------
--0-0-------
---0--------
-----0------
----0-0-----
-----0------
------------
-----------0
--0-------0-
-0-0-------0
--0---0-----
---0-0-0----
--0-0-0-----
---0--------

Generation = 2, Population = 52.
--0--10-----
------------
--012-10----
-0-------0--
----00------
---00--0---0
------------
-00---0--0--
----1-------
----1--0----
--0---0-----
-----0---0--
---00-------
-------0----
-0---0------
-----0------
---0--------
---0---0----
------------
-----0-----0
--0---------
---------0-0
0---0-0-----
---0-------0
--0-0---0---
-0---0------
------0-----

Generation = 3, Population = 137.
-0-00210----
---000-0----
--1-3-2100--
0--0-0000-0-
-0---100-0-0
--01--0-0-0-
-0000-00-0-0
011000-00-0-
-0002000-0--
--0020--0---
-0-00----0--
--00----0-0-
--011--0-0--
-0-0000-0---
0-0-0100----
-0-0010-----
--0100-0----
--010-0-0---
---0-0-0---0
--0-0-0---0-
-0-0-0---0--
0-0-0-0-0---
-0-----0-0--
0---0-0-0-0-
---0---0-0-0
0-------0---
-0-----0----

*** Life<FredkinCell> 8x4 ***

Generation = 0, Population = 13.
00--
--0-
-0--
00-0
--0-
-0--
000-
---0

*** Life<FredkinCell> 26x33 ***

Generation = 0, Population = 5.
---------------------------------
---------------------------------
---------------------------------
------------------------0--------
------------0--------------------
---------------------------------
---------------------------------
---------------------------------
---------------------------------
---------------------------------
---------------------------------
---------------------------------
---------------------------------
---------------------------------
---------------0-----------------
---------------------------------
---------------------------------
---------------------------------
---------------------------------
---------------------------------
-----0---------------------------
---------------------------------
---------------------------------
---------------------------------
---------------------------------
------------------------------0--

Generation = 3, Population = 70.
------------------------0--------
------------0----------0-0-------
-----------0-0--------0-0-0------
----------0-0-0------0-0-0-0-----
---------0-0-0-0------0-0-0------
----------0-0-0--------0-0-------
-----------0-0----------0--------
------------0--------------------
---------------------------------
---------------------------------
---------------------------------
---------------0-----------------
--------------0-0----------------
-------------0-0-0---------------
------------0-0-0-0--------------
-------------0-0-0---------------
--------------0-0----------------
-----0---------0-----------------
----0-0--------------------------
---0-0-0-------------------------
--0-0-0-0------------------------
---0-0-0-------------------------
----0-0-----------------------0--
-----0-----------------------0-0-
----------------------------0---0
---------------------------0-----

Generation = 6, Population = 68.
----------0-0-0------------------
--------------------0-------0----
--------0---0---0----------------
------------------0---0---0---0--
------0---0---0---0--------------
--------------------0---0---0----
--------0---0---0----------------
----------------------0---0------
----------0---00-----------------
------------------------0--------
------------00---0---------------
---------------------------------
-----------0---0---0-------------
---------------------------------
-----0---0---0---0---0-----------
---------------------------------
---0---0---0---0---0-------------
---------------------------------
-0---0---0---0---0---------------
------------------------------0--
---0---0---0---0-----------------
----------------------------0-0-0
-0---0---0-----------------------
--------------------------0-0-0--
---0---0-------------------------
------------------------0-0-0----

Generation = 9, Population = 75.
---------------------------------
------------0--------------------
-----------0-0--0-------0-------0
----0-------0--0-0--0--0-0-----0-
---0-0----------0--0-0--0-------0
----0----------0----0------------
--------------0-0----------------
---------------0-----------------
---------------------------------
---------------------------------
------------------------0--------
-----0------0----------0-0-------
----0-0----0-0----------0--------
-----0-0----0----------0---------
------0-0-------------0-0--------
-------0---------------0---------
------------------------------0--
-----------------------------0-0-
---------------------------------
-0-----------0---------------0-0-
0-0---------0-0---------------0--
-0-----------0-0-----------------
--------------0-0----------------
-----0---------0-----------------
----0-0---------------0-----0----
-----0---------------0-0---0-0---

Generation = 12, Population = 66.
----0-------0-------0------------
---------------------------------
--------0------11----------------
------------1-----------------0--
0-------0-------0-------1--------
---------------------------------
-----------01------1-------------
----------------0---------------0
----00------0-------0------------
---------------------------------
-------0-------0-------0---------
--------------------0-------0----
-0------01------0----------------
------------------------------0--
---0-------1-------0-------0-----
------------------------0-----0--
-0---0------00-------------------
--------------------------0-----0
-------0-------0-------0---------
--------------------------0-----0
-0-------0-------0---------------
----------------------0-----0-0--
-----------0-------0-------------
----------------------0-----0-0--
-----0---0---0-------------------
------------------0-----0-0-----0

Generation = 15, Population = 285.
-0----------1-1-1------0------0--
0-0--------0---0-0----0-0----0-0-
-0-0------1-----4-1--0-0-0--0-0-0
--0-0----0-------0-00-1-0-00-0-0-
---0-0------------3110-0-0-00-0--
--0-000--0--------00000-0-0--0---
-0-011001-2------1-12100-0-------
0-00000-00-0----0-1-00000----0---
-01211-0-01-1--2-0-2-0110---0-0--
-0000-0-0-00-00-1-0-2-00-0-0-0-0-
0-00-0-0-0-02200-1-0-1--0---0---0
-0--0-0-0-0-00000-1-0------------
-----0-0-2-0-01200-1--------0-0-0
-0----0-0-0-0-00000--------0-----
0-0----0-0-1-0-0110-------0---0-0
-0-0----0-0-0-0-00-0-----0---0-0-
--0-0----0-0-1-0--0-0---0---0-0--
---0------0-0-0----0-0-0---0-0---
-----------0-0------0-----0-0----
---0--------0----------0-0-0-----
--0-0---------------0-0-0-0------
-0-0-0---0---------0-0-0-0-------
0-0-0-0-0-0-------0-0-0-0--------
-0-0-0---0-0---0-0-0-0-0---------
--0-0-----0-0-0---0-0-0----------
---0-------0-------0-0-----------

*** Life<FredkinCell> 26x24 ***

Generation = 0, Population = 20.
------------------------
-----0------------------
----------------------0-
------0-----------------
--------------0---------
--------------0----0----
------------------------
-----------------0------
---------0--------------
-----0------------------
------------------------
-------------------0----
------------------------
---0------0-------------
------------------------
----------------------0-
------------------------
------------------------
-------------0----------
----------------0-------
-------------------0----
-----------------------0
------0-----------------
------------------------
---------0--------0-----
------------------------

Generation = 2, Population = 71.
----------------------0-
---0--10----------------
--------------0-----0---
----01--0-----1----0----
------------0---0-----0-
------0-----0---0----0--
---------0----1---------
-----0--------00--------
-------0---0------------
---0---0---------0-0----
---------0--------------
---0-0----0------0---0--
------------------------
-0---0--0---0------0--0-
------------------------
---0------0---------0---
-------------0----------
----------------0-----0-
-----------0---0---0----
--------------0---0----0
------0------0---0---0--
----------------0----0-0
----0---00--------00----
-----------------------0
------00---0----0---0---
------------------------

Generation = 4, Population = 75.
--------------0-------0-
-0---1---0----1----0----
------------------0---0-
--0-------0------0------
---------00-------0-----
----------0----1--0----0
----------------------0-
------1------1-----0-0--
-----1-------01---------
-0-0-----10---0----0----
------------------------
---------------0-0----10
---------0--------------
-----011------0---------
-------------0----------
----------------0-01--0-
-------------------0----
---0------0------------1
------0--0-------0------
------------0-------0-1-
---------0-----0--0----0
-------------------1-2--
--0-------1--0----------
----------------1-------
-----1---0---00---01--0-
-----------------------0

*** Life<FredkinCell> 24x17 ***

Generation = 0, Population = 27.
-----------------
-----------------
--------00---0---
-----------------
0----------------
---0-------------
--0----------0---
-----------------
-----------------
---------00------
------0-----0----
-----------0----0
-----------------
-----------------
0-------------0-0
---------0-------
0----------------
-----------0-----
-----0-0---------
----0-----------0
----------------0
--------0--------
-----------------
0----0-----------

Generation = 3, Population = 178.
-------0110-0-0--
0-----00000--0-0-
-0-0-01211-0--0-0
--0-0-00000----0-
---0-0-0110------
--0---0-00-0---0-
-0-------0--0-0-0
------0-011-00-0-
-0---0--0000-10-0
--0-0--1-1102-00-
---0-0--1-200-10-
0---0-0-0020-11-1
-0---0-0-00--01--
0-0---0-0---0--02
-0-0---0-0-----00
-----0010---0---0
-0-0---10-------1
0-0--0---0--0--0-
-0--0-0-0-00-000-
00---0----0-001--
0-0--1----00-01--
-0-0111--0-0--00-
0-000-000-0----01
-011---110------0

Generation = 6, Population = 171.
----00014-1-10-0-
-0---1-----------
---1--2-2221-10--
---0---0-10------
-----10-12---0---
-----0-013--1---0
----0-0----0--10-
---0-000--2-----0
0-0-------0-0-1--
-0-002--21----1--
0-0---1-2-31---00
---0--10----0---2
----00010----0--1
----11--1-----10-
---00203-0----0-1
--01--0-0-0--0---
-1-0-0-2-001--0-2
----101-2-010-0--
-3-011-1-2-1-1--1
0--111112-----213
-100-1-0-1000----
2101-221-01-01--1
1--0-2-1-1--1-0--
-342-101431-0-0--

*** Life<FredkinCell> 28x1 ***

Generation = 0, Population = 2.
-
-
-
-
-
0
-
-
-
-
-
-
0
-
-
-
-
-
-
-
-
-
-
-
-
-
-
-

Generation = 3, Population = 8.
-
-
0
-
0
-
0
-
0
0
-
0
-
0
-
0
-
-
-
-
-
-
-
-
-
-
-
-

*** Life<FredkinCell> 37x41 ***

Generation = 0, Population = 11.
-----------------------------------------
-----------------------------------------
------------------------0----------------
-----------------------------------------
-----------------------------------------
-----------------------------------------
-----------------------------------------
-----------------------------------------
---------------------0-------------------
-----------------------------------------
-----------------------------------------
-----------------------------------------
---------------------------------------0-
-----------------------------------------
-----------------------------------------
----------------0------------------------
----------------0------------------------
--------------------------------0--------
-------------------------------0---------
-----------------------------------------
-------------------------------0-----0---
-----------------------------------------
-----------------------------------------
-----------------------------------------
-----------------------------------------
-----------------------------------------
-----------------------------------------
-----------------------------------------
-----------------------------------------
-----0-----------------------------------
-----------------------------------------
-----------------------------------------
---------------0-------------------------
-----------------------------------------
-----------------------------------------
-----------------------------------------
-----------------------------------------

Generation = 2, Population = 43.
------------------------0----------------
-----------------------------------------
----------------------0---0--------------
-----------------------------------------
------------------------0----------------
-----------------------------------------
---------------------0-------------------
-----------------------------------------
-------------------0---0-----------------
-----------------------------------------
---------------------0-----------------0-
-----------------------------------------
-------------------------------------0---
----------------0------------------------
----------------1----------------------0-
--------------0---0-------------0--------
--------------0---0------------0---------
----------------1-------------0---0------
----------------0------------0-0-0---0---
--------------------------------0--------
-----------------------------0-0-0-0---0-
-----------------------------------------
-------------------------------0-----0---
-----------------------------------------
-----------------------------------------
-----------------------------------------
-----------------------------------------
-----0-----------------------------------
-----------------------------------------
---0---0---------------------------------
---------------0-------------------------
-----0-----------------------------------
-------------0---0-----------------------
-----------------------------------------
---------------0-------------------------
-----------------------------------------
-----------------------------------------

Generation = 4, Population = 43.
------------------------0----------------
-----------------------------------------
--------------------0-------0------------
-----------------------------------------
---------------------0-------------------
-----------------------------------------
------------------------0----------------
-----------------------------------------
-----------------0-------0-------------0-
-----------------------------------------
-----------------------------------------
----------------0------------------------
----------------1----0-------------0---0-
--------------------------------0--------
-------------------------------0---------
------------0-------0--------------------
------------0-------0----------0-----0-0-
----------------------------0-------0----
---------------------------0-------0-----
----------------1------------------------
----------------0----------0-----0-0-----
--------------------------------0--------
-------------------------------0---------
-----------------------------------------
-------------------------------0-----0---
-----0-----------------------------------
-----------------------------------------
-----------------------------------------
---------------0-------------------------
-0-------0-------------------------------
-----------------------------------------
-----------------------------------------
-----------0-------0---------------------
-----0-----------------------------------
-----------------------------------------
-----------------------------------------
---------------0-------------------------

*** Life<FredkinCell> 35x45 ***

Generation = 0, Population = 36.
---0-----------------------------------------
------0--------------------------------------
---------------------0-----------------------
---------------------------------------------
---------------------------------------------
-----------------------0-----0------0--------
------------0---------0----------------------
---------------------------------------------
----------------------------0----------------
---------------------------------------------
---------------------------------------------
---------------------------------------------
---------------------------------------------
----------------------------------0----------
----------0----------------------------------
---------------------------------------------
---------------------0-----------------------
-------0---------------0--------------------0
------------------------------------0--------
------0-------------0------------------------
----------------------------------0----------
--0-------------0----------------------------
----------------0----------------0-----------
-----------------------0---------------------
---------------------------------------------
-------------0-----------0-------------------
---------------------------------------------
0--------------------------------------------
------------------------------0--------------
------0-0------------------------------------
--------------------------------------0------
---------------------------------------------
----------------------0---------------------0
--0-----------0-------------------------0----
---------------------------------------------

*** Life<FredkinCell> 23x29 ***

Generation = 0, Population = 1.
---------------0-------------
-----------------------------
-----------------------------
-----------------------------
-----------------------------
-----------------------------
-----------------------------
-----------------------------
-----------------------------
-----------------------------
-----------------------------
-----------------------------
-----------------------------
-----------------------------
-----------------------------
-----------------------------
-----------------------------
-----------------------------
-----------------------------
-----------------------------
-----------------------------
-----------------------------
-----------------------------

Generation = 3, Population = 7.
------------0-----0----------
-------------0---0-----------
--------------0-0------------
---------------0-------------
-----------------------------
-----------------------------
-----------------------------
-----------------------------
-----------------------------
-----------------------------
-----------------------------
-----------------------------
-----------------------------
-----------------------------
-----------------------------
-----------------------------
-----------------------------
-----------------------------
-----------------------------
-----------------------------
-----------------------------
-----------------------------
-----------------------------

Generation = 6, Population = 16.
---------0-0-0-0-0-0-0-------
-----------------------------
-----------0-0-0-0-0---------
-----------------------------
-------------0-0-0-----------
-----------------------------
---------------0-------------
-----------------------------
-----------------------------
-----------------------------
-----------------------------
-----------------------------
-----------------------------
-----------------------------
-----------------------------
-----------------------------
-----------------------------
-----------------------------
-----------------------------
-----------------------------
-----------------------------
-----------------------------
-----------------------------

Generation = 9, Population = 12.
------0-0-------------0-0----
-------0---------------0-----
-----------------------------
-----------------------------
-----------------------------
---------------0-------------
--------------0-0------------
-----------------------------
--------------0-0------------
---------------0-------------
-----------------------------
-----------------------------
-----------------------------
-----------------------------
-----------------------------
-----------------------------
-----------------------------
-----------------------------
-----------------------------
-----------------------------
-----------------------------
-----------------------------
-----------------------------

*** Life<FredkinCell> 15x30 ***

Generation = 0, Population = 6.
------------------------------
------------------------------
------------------------------
-------0----------------------
------------------------------
------------------------------
------------------------0-----
------------------------------
------------------------------
------------------------------
-----------0------------------
------------------------------
------------------------------
------0--------0--------------
----------------------------0-

Generation = 5, Population = 77.
------------------------------
------------------------0-----
---0-------0-----------0-0----
--0-0-----0-0-----------0-----
---0-------0------------------
-----------0--------0-------0-
-------0--0-0------0-0-----0-0
------0-0--0--------0-------0-
------00-------0--------------
-----0--------010-------0---0-
--------0-----020------0-0-0-0
-------0-------0--------0-----
--0---0---00---0---0-------0-0
-0-0-0-0-01-0-0-0-0-0---0-----
--0---0----10--0---0---0-0-0-0

Generation = 10, Population = 67.
-----------0----------0-0-0---
-------0-------0--------------
---------0---0----------0-----
-----01--0---0-0-0------------
-----------2----0-------------
----0--10----0-0-0------------
--------------0---0---------0-
------------------------------
---0------------0--0------0---
----0--11----1---1------------
-0---0-----0-----1---0------0-
0----011-0----00-------0------
---0-----0---0-----00---------
0-0--0-1-2--1---0----0---0----
-----------2------0-0-0-------

Generation = 15, Population = 186.
---00-0-0----1-210-0---------0
--011----0--0--1-1--0-------0-
-000-10---02--20121--0-----0--
012-0220--11-100-101--0---0---
00-2000-00---00-1-011----0----
--0100-212-31--1-0-3010-0-----
0-000-000--11---0-2-1-1-------
---0-1210-0--1---1-0-0010-----
0--10004------0---0-001-00----
-01--23---1----3---100-1-10---
-00------1-1----2--12-2-2-00--
0----11-0-1-0----01--0-0-0--0-
--0-010--1-4-1---12---1-1----0
01--20-1--3-1-1-0--1---0------
01-3--0----5-1------2-1-------

*** Life<FredkinCell> 20x29 ***

Generation = 0, Population = 3.
-----------------------------
-----------------------------
-----------------------------
-----------------------------
-----------------------------
-----------------------------
-----------------------------
-----------------------------
-----------------------------
-------0---------------------
-----------------------------
-----------------------------
-------0---------------------
-----------------------------
-----------------------------
-----------------------------
-----------------------------
-0---------------------------
-----------------------------
-----------------------------

Generation = 5, Population = 45.
-----------------------------
-----------------------------
-----------------------------
-----------------------------
-------0---------------------
------0-0--------------------
-------0---------------------
-------0---------------------
---0--0-0--0-----------------
--0-0--0--0-0----------------
---0-------0-----------------
---0-------0-----------------
-00-0--0--0-0----------------
0-00--0-0--0-----------------
-0-----0---------------------
-------0---------------------
-0---00-0--------------------
0-0-0-00---------------------
-----0-----------------------
0-0--------------------------

*** Life<FredkinCell> 6x12 ***

Generation = 0, Population = 32.
-00-0--0-0--
-00-0-0000--
---00----0--
--000-0---00
0-00-0-00-00
---0-----0-0

*** Life<FredkinCell> 21x37 ***

Generation = 0, Population = 3.
-------------------------------------
-----------------------------------0-
-------------------------------------
-------------------------------------
-------------------------------------
-------------------------------------
-------------------------------------
-------------------------------------
-------------------------------------
-------------------------------------
-------------------------------------
-------------------------------------
---------0---------------------------
---------------------------0---------
-------------------------------------
-------------------------------------
-------------------------------------
-------------------------------------
-------------------------------------
-------------------------------------
-------------------------------------

Generation = 5, Population = 40.
-------------------------------0-----
------------------------------0-0----
-------------------------------0-----
-------------------------------------
-----------------------------------0-
----------------------------------0-0
-----------------------------------0-
---------0---------------------------
--------0-0----------------0---------
---------0----------------0-0--------
---------------------------0---------
-----0-------0-----------------------
----0-0-----0-0--------0-------0-----
-----0-------0--------0-0-----0-0----
-----------------------0-------0-----
---------0---------------------------
--------0-0----------------0---------
---------0----------------0-0--------
---------------------------0---------
-------------------------------------
-------------------------------------

Generation = 10, Population = 30.
-------------------------------------
-------------------------0-------0---
---------0---------------------------
-------------------------------0---0-
-------0---0-------------------------
-------------------------0---0---0---
---------0---------------------------
---------------------------0---------
-------------------------------------
---------------------------------0---
-0---------------0-------------------
-------------------0-----------------
---0-----------0---1-----------------
-----------------1---0-----------0---
-0---------------0-------------------
-------------------0---------------0-
-------------------------------------
-------------------------------------
---------0---------------------------
-------------------------------------
-------0-0-0-------------------------

*** Life<FredkinCell> 40x20 ***

Generation = 0, Population = 32.
--------------------
------------------0-
------0-------------
--------------------
0-------------------
----0----0----------
--------------------
-----------00-------
--------------------
--00----------------
--------------------
--------------------
-----0--------------
-----0--------------
--------------------
--------------------
--------------------
----------------0---
-------------0------
--------------------
-------------0------
--0-----------------
--00----------------
------------0-------
---------0----0-----
--------------------
--------------------
--------0---0-------
--------------------
----0--------------0
--------------------
-------------------0
-------------0------
----------------0---
--------------------
0------------0------
----0---------------
--------------------
------0-------------
-------------------0

Generation = 1, Population = 114.
------------------0-
------0----------0-0
-----0-0----------0-
0-----0-------------
-0--0----0----------
0--0-0--0-0---------
----0----0-00-------
----------0110------
--00-------00-------
-0110---------------
--00----------------
-----0--------------
----010-------------
----010-------------
-----0--------------
--------------------
----------------0---
-------------0-0-0--
------------0-0-0---
--------------------
--0---------0-0-----
-01----------0------
-0-10-------0-------
--00-----0-0-00-----
--------0-0-00-0----
---------0----0-----
--------0---0-------
-------0-0-0-0------
----0---0---0------0
---0-0------------0-
----0---------------
-------------0----0-
------------0-0-0--0
-------------0-0-0--
0------------0--0---
-0--0-------0-0-----
0--0-0-------0------
----0-0-------------
-----0-0-----------0
------0-----------0-

Generation = 2, Population = 107.
------0-------------
----------------0---
0---0---0-----------
----0----0--------0-
0-0---0-------------
--0---00----0-------
0-------------------
--000-----1--10-----
--------------------
01--10-----00-------
-----0--------------
--00-1--------------
---0---0------------
---0---0------------
-----1--------------
-----0----------0---
-------------0------
--------------0---0-
-----------0-0-0----
--0-------------0---
--10-------0-0-0----
0---0-------0-------
01--10---0---00-----
--1-------0---1-----
--00---0---01---0---
--------0-----------
---------0----0-----
----0-0-------0----0
--------------------
--0---0-0---0----0--
-------------0------
----0-----------00--
-----------0---0----
0------------10---00
----0--------1------
0-0--------0---00---
--0-----------------
0------------0-----0
--------0-----------
-----------------0--

Generation = 3, Population = 276.
-----0-0--------0---
0---0-0-0------0-0--
-0-010-0--------0-0-
--00100---0------0-0
--10001--0--0-----0-
-010-0-10--0-0------
-0-00-00--0-000-----
001-10---0-11210----
0000-0----00000-----
12112-0---0110------
0000--0----00-------
-01--200------------
----01010-----------
--0101010-----------
---00200--------0---
----010------0-0-0--
-----0------0---0-0-
-----------0-0---0-0
--0-------0---0---0-
-01------------0-0--
00-1------0-0-------
1-1-1----0---000----
-2-1-10-0----1-0----
0-2-00-0----0-200---
-0-10-0----12000-0--
--00-------00-0-0---
----0-0---0--010---0
---0---0-0---010--0-
--0-0---0---0-0--0-0
-0-0-0---0-0----0-0-
--0-0-0-0-----0-0---
---0-0-----0-0--110-
0---0-----0-00---000
-0--0------00-1--011
--00-0-----002-00-00
--100-----0-000110--
-010-------0-0-00--0
-00-----0---0-0---0-
0------0-0---0---0-0
--------0-------0-0-

Generation = 4, Population = 111.
0-----0-------------
----1----0----0-----
--0-------0---------
-----------00-------
--2-1---------------
0-21-1--1----1----0-
------1-------------
-------00------10---
1----1--------------
2---3010-0----------
--------------------
-----------00-------
-0-------0----------
-012-----0------0---
-------------0------
--------------------
-----1-------0------
--0--0------0-------
--10-----0-------0--
------------0-------
--------------0--0--
2-----0---------0---
0-----10-----2------
------------1---1---
-----0----0-------0-
--1-0--------------0
--00----------------
----0---0-------0--0
---------0---01-----
0-------0------010--
--------------------
0-------0---01-0-2--
----1----0-------1--
----1-------1------2
------0-------------
--2-1----0-------1--
0-------0----1------
----------------0--0
--0---0---0---------
0------------0-0-0--

Generation = 5, Population = 286.
-0--00-0-0----0-----
0-00-00-0----0-0----
-0-01-------0-0-----
----1------110------
0030----0--000----0-
---20--1-0--0-0--0-0
0-00---------0-00-0-
0----0-110----1210--
20---2--00-----00---
32-141-1--0---------
0---0000-0-00-------
-0-------00110------
01-0----01000---0---
0--30---010--0-0-0--
-000-----0--0-0-0---
-----1--------------
--0-020-------0-----
-01-010--0-0-----0--
-0-100--0-0-----0-0-
--10-----0-0-00-----
0-----0-----00-0--0-
30---01------000----
12---1-10-----0-----
0----000--00---0-00-
--0---0--0-12---00--
-020------0---------
-0-10---0-------0---
--0--0-0-----010-00-
0---0---0-0-012--0-0
-0-----0-----0-1-10-
------------00--0---
-0--0--0---012---30-
0--020----0--0-00200
---0200--0-0-1---01-
--0--0-0-0--0----0-0
00---00---0--0--1-0-
-01-0--0----0-0-00-0
0-0---0-0-0--0-0-00-
00-0-0-0-0-0-0-000-0
-00---0---0-0-----0-

Generation = 6, Population = 280.
----1-0-0-0---------
--1---10--------0---
--0---0-0---1-------
0-0020--0-0-------0-
1---1-----0---------
-023110-1-0-1-------
1-1--0--0-----------
--1011-22-1---2--1--
3-00--00------------
4--25212-0--1--00---
10---1---1----------
01100200-11--10-0---
---1---1---1-0------
10-411-1----0-0---0-
-1---2---1-0-0-0----
-0-0-2---0--0---0---
--1----0-0-0-0-0-0--
0--01--0--0-0-0-----
01--1--0---0-000-0-0
0-2--00---0-0-1-0---
1-11--10-0--11-100-0
4-1-1---0-----1-0-0-
2-0-1---1000--10-00-
1-2-0-1---1-----1-10
0-1---1-0---30--1---
0-3---0-0---0----0--
01--1----00--01---0-
0---0---0-0---210-1-
--00---0----1--00---
--0-0-0---0-0-0-1-1-
----0--------10--0--
--0-1-0-0--123001---
--0----0---0---1---1
0---3-1-010-1210-1-2
0--------1---2---1--
1-2---10---00--12--0
0-----0----0---0----
1-1-0----0---101-110
--------0---01------
--1--------0---00---

Generation = 7, Population = 391.
--00--10---0----0---
-02010210-0-0--0-0--
00--1-101000-0--0-0-
1---31-01-111----0-0
2--0-01--0-00-----0-
013-221-2-1--1------
-0-00----0--0-0--0--
-021--0----1-2-21-0-
4--102-1-00-0-0000--
-----32--101-00110--
2---0-0-0---0000----
-2-1-3----2-1-1--0--
----0---01--010-0-0-
2------201-0-----0-0
--0---0002----0---0-
010--3000-00-0-0----
0--00201-10---0-0-0-
1--1-10-0-----10---0
12--2--10-0--1-10---
-03--1-0---01-2-10--
--22---10--0-2-2-10-
---0201-10000-2-1-1-
-----111--1102-1-11-
----1-20--2-102-20-1
---100--1001-1002-00
-040001-1-00100-----
12-1200-01-0-1--0-10
1-0-10---0100--2--20
00-10------0212-10--
-0101----0--101121-0
---0-0--0-000-1-0---
-01-2--0-00--4112--0
0010--0-00-10-0--202
1000---0121023---2-3
-00-0--0-2-003---20-
---0-0-1000-1-0-3-0-
-0--001--001-1---00-
2----00---00-----2-1
0---0--0----1---0000
-0-0----0-0--00110--

Generation = 8, Population = 102.
--------------------
--312----01---0-----
--------------0-----
--------------------
-----1--0-----------
-24--3------1----00-
--------------------
---21--------------0
--------------------
---25-----12----2-0-
------1------1------
--------------------
01------------------
-01-1----2---0------
--10----------------
-----------1--------
---------2----1-----
--12----1-------0---
-----0-------------0
--------0---2-------
-------------------0
-----1----1--------0
---11-----22--------
----2--------------2
-0----1------2---01-
--------------------
-------------2------
----2--------0--0---
----1--------2------
-----------021------
--01--0-------------
-----------125-----1
-----0---1----1----3
--------2-------0--4
------0-------------
-----11-----2------0
--1-1-------0-------
3---0--------1-----2
1-------------0-----
-----------0-1--2--0

Generation = 9, Population = 280.
--001----00---0-----
-04-30--0120-010----
--001----00--010----
-----1--1-----0-----
-03-1210-0--0----00-
0353241-2--0-1--0110
-01000------0----000
--2321------------0-
----------00----0-00
--13632--12310-1---0
---001-0--000-0-0-0-
02----0------1------
1---0----1---1------
---4-1--0-0-0-0-----
---1-----2-0-0------
--00-----00-0-0-----
--10------00-0-00---
-02311-0------10-0-0
--112-0-----0---0-0-
-----1-0-0-0-0------
-----0--0-0-1-----01
---0--1--02-------11
--02-----0-30-------
-0--302---20-0---0--
0-1-00-0----3-0-212-
-0----1----------00-
----2-------031-0---
---030------0-22-0--
---120-----0--2-1---
--101-0---01--1-----
-01200-0-----------0
--10-00--002-6----02
----2-0---010--10-0-
-----010------10-215
------100---0---0---
--2--2-1---030----0-
00--2-1----11-------
401010------------1-
20--0------0-1-00---
0---------0----1-00-

Generation = 10, Population = 259.
--------------1-----
015-41211--1----0---
-----0--1---1---0---
-0-032---01-1-1--00-
---0--21--0---0-----
1--4---1--1---001---
-----1--0-----------
---43-0---111---1--0
------0------0------
-224743-02--210-2-01
20--1---0--1---0----
-311-----121-2--0-0-
2-----0------2------
2-151-02---0---0----
----02---3----0-----
-1-10---0-------0---
--21-2-1---10---1--0
11--220-1-000-2---0-
---2---1-0----0--0--
--30-20-0-0---2-1--0
---201----10-----1--
---12--0---------0--
--1--1--11--1----110
--2--13---3------1--
--------1-0--2--3--0
-------------0--0--0
-2--3-0----0---0-01-
--0---0-----1033--2-
---2-------1-2-0----
----2----01-21212--0
01--1---00---11----1
--------011-2-1123--
--1--------21---12-3
-----1----10-32--326
--0--0--12--1-0----0
1--0---2--0--10-31-0
--1-3-----0---------
5----1------01-102-2
3---1-----------1---
1---0----0---1022110

Generation = 11, Population = 417.
000-10100--0-0-00---
1-6-52---12---1010--
0-001---2-0-20101-0-
1------0-1--2-20-110
203---3-0--000--000-
-35524-2-020-1--21--
1--------0-00-00---0
--254112202-2--2-10-
-00----1000001----0-
----8----32-3211--12
31002-1011-2----0--0
0--2--0--2---31----0
3---011--10-03000-0-
3-2--1-3020-00--0---
011113-0--00-0--0---
0-0--3-----10-0010-0
003--30-0----01020--
22-3331--011--300---
12-3--0---0001-1---0
-0410-10-01--03--00-
---31--100-11-0--201
-----11--0200---1--1
-22--2--22-3-2--02-1
-0303-40--4010---2--
--1--010--1133004-21
-0--0-1-1-00110-1--1
1--1--10--0----101--
----3010---021-40-30
------0--0--------00
00--30----213-323111
121220-0-10-0-20-002
001-2--0-22236--3-0-
-0-0-0--010------304
----321-2-2--4-0---7
00--011-230----00---
-02--21---10-2--42-1
-0-0---0-0111-00----
601-1-0---0012-213--
-0-02----0--1-00-00-
20-010--0-0-02--3--1

Generation = 12, Population = 257.
-----1--1-----1-----
-1-16--112--00---1--
----------1-------1-
---03--------------1
-1--1----0--1-------
1-6--51-2--1-2-----0
------1------01-----
0------33------3-2--
41---2--1-----------
4---943-04---3-2-0--
---1-----20------0--
---30------1-------1
-10-12---2----1-----
-03-1-0--310-1---00-
1----4-1-----1-----0
-------00---1--1----
11---4----0--1----00
332--420-12--0-----0
-31-2----011---2-0--
--------0--02---1--0
-0----1--1---212--1-
-011--2-11----2020--
2----31-3----311---2
1---4-------21-023--
-02-01---02---1--13-
-----0----1122-----2
--0-3-2--110-----2--
1---4---00-1-2---0--
00---01-0----22---11
-------0-0-----3-2-2
2-2----1--1--1------
----300103--47-----2
-11--1---21-1--1-41-
1----------02--1-3-8
1--0--2---1---0-----
-13-----002-3--1-3--
-----01--1----1-0--0
7-2-2----0-1-3-3----
3-0-3-0---0---1---1-
3---2100-0---3------

Generation = 13, Population = 345.
-0-0--1-2---0--0-0--
1--27-2223-111--1---
-0-----02--020------
-001-2---11-2-------
----2-3---0---------
-3-5-6----2-13----1-
--1---2----00-2--0-0
1----1-4-0---2----0-
520--3-------1------
5---+54-----3----11-
3-02211---1--1-00100
-3----------1-1--00-
3--123--03-----0-000
----2---0--1-2--011-
--1---02-300-200-0--
-1----0-1001-00-1-0-
----05--0-11-210-01-
---3---1--3-0130-0-1
------01--2--10-0-0-
--4-0-10-0--3-30----
11-3-1210211-32-0---
---22-----2--03--1-1
3-22-4--4-----220-1-
2-30514-00403------2
-13---1-11---3----4-
-0--01---022-3------
12--40-0--21----0310
2-005--0--12-3--01-0
-10--12010-12-3--02-
-01--0-10---------13
---220---1-0-220-0--
00-041-2--22--11-3--
-220-2-0--22--12--24
2-00-21--221-4-2-42-
2---01-02-2--3-0---0
-24--2-211---20-4-01
00---120---11-----0-
8-3-3---010-------12
--1--01--0---1---0-0
4010--11----0-----1-

Generation = 14, Population = 368.
---1-1203---1-1-0-0-
-16-8--3-4----1-----
-1--10---0----1-1---
1--23--0-2-13-------
--30---1---0-0----0-
1-6-2-1--031-4------
1----1---0-1---00---
2---421---21-3------
6-11---1-0---20--0--
-------2--23-3-2----
411-32-0-2-20-01---1
0-----0-0221-3-0-111
--023411-40103--01-1
3-3-3-0-13-2-3-01---
---114-3--11-311-10-
0---0-10-1-2-11---10
-1--16--122-03--2---
--2--4-2-1-11---01--
--1320-20-310-1--0--
0--1-221011---411-0-
2224-232-3221-32---1
-0-33120--3-0-4-2-1-
4--3-5-15--31---12-2
3041-2--11--4-202-1-
-----12--22--41--1--
---0---0--3--40-10-2
----5--10-320--1-4--
3----0-----32--4-2-1
--1-----210-32-0---1
0-----0--0--31-3-2-4
2---310---11-33--1-2
1-1152-30--34-22-4-2
0-312-010-331--314-5
30--3320-3---52--5-8
3---122---3-1-01-201
1-50--1322-0--11----
--1-----0--22-1-00-0
904--1--121-13------
-----1---1----1-1--1
5-212--200-0--------

*** Life<FredkinCell> 21x47 ***

Generation = 0, Population = 38.
---00-----0------------------------------------
-------------------00----0----------------0----
-------------------------0-----------------0---
------0------------------0---------------------
-------------------------------0---0-----------
----------------------------------------------0
---0-------------------------------------------
-----------------------------------------------
-----------------------0-----------------------
-----------------0-----------------------------
----------0-------------0---------------------0
---------------------------0-------------------
-0-----------0--------------------0------------
------------------------------0----------------
---00------------------------------------------
-----------------0-----------------------------
----------------------0-0----------------------
-----------0-0--------------------0------------
------------------------------0--0-----------0-
---------------------0--0----------------------
-----------------------------------------------

*** Life<FredkinCell> 37x15 ***

Generation = 0, Population = 35.
-0-----0-------
---------------
----0--0-------
---------------
----------0----
---------------
---------------
---------------
---------------
------------0--
0--------------
---------------
---0--0--------
-------0-------
--0--------0---
---0----------0
-------------0-
-0-------------
---------------
----0----------
--0------------
--------0----0-
--0------------
-------------0-
---------------
-0-0---0-------
---------0-0---
---------------
---------------
----------0----
---------0-----
---------------
-----------0---
0-----0--------
-------0-------
0--------------
--0------------

Generation = 2, Population = 111.
-0-000---0-----
---------------
-00--110-00----
---------------
----0--00---0--
---------------
----------0----
------------0--
0--------------
----------0---0
0-00--0--------
-------0----0--
001-11--0--0---
---1-0---0----0
0--00-0--0-----
-----0-0----0-0
--0------------
----0---------0
--0----------0-
-01---0-0----0-
0-0-1----------
----0-0---00-0-
0-0-0----------
-0-0---00--0-0-
--0------0-0---
-0-0-----1---0-
-------1-0-0-0-
-0-0---0--0----
-----------0---
--------0---0--
-------0-------
0-----0---0----
-------0-----0-
--0-0---0------
--0--0---0-0---
--1---0--------
1-0-0--0-------

Generation = 4, Population = 118.
-0-202-0--10---
---------------
12-1---20--1---
---------------
-0----12------0
------------1--
0---0--0-------
---------------
---0--0---1----
-------00-----0
----1------0---
---1----------0
--3----0--1--0-
-1-3-------10--
------00-------
----0--0--0-0--
--01--0--0---0-
-0---1-00----0-
-----------0---
0--1----0----21
0-----0------0-
---10--1-1--00-
0-----1--0-0---
----0----0---0-
--0------------
-0-0-0-11-10-2-
--0--0-3-2---2-
-------------1-
-----------0---
00-0---0------0
-----0-0-0-0-0-
0--------------
--1----0-------
----0----------
--01-----0-0---
1-1-1----------
1-----00---0---

*** Life<FredkinCell> 30x24 ***

Generation = 0, Population = 31.
0--------------0--------
----0-------------0-----
------------0-----------
------------------------
-0----0--0---0----------
---------0-------------0
------------------------
-----------------------0
--------------0---------
----------------0-------
--------------0---------
------------------------
------------------------
----------------------0-
------------------------
-------------------0----
0-----------0----0------
-----0------------------
-------0------------0---
-------------0-----0----
---0----------------0---
------------------------
------------------------
------------------------
-----------0-------0----
--------0---------------
------0-----------------
------------------------
------------------------
------------------------

Generation = 2, Population = 110.
--0---------00-0-0------
--0---0---------0---0---
00----0--00--100--------
----0----1--------0----0
---00--11---1--0--------
-------0---0---------0--
-0----0--1---00---------
---------0------0----0--
------------0-0-1-------
--------------0---0----0
------------0-0-1-------
----------------0-----0-
--------------0---------
-------------------00---
0-----------0----0------
-----0-----------1---00-
0-0----0--0---00---10---
---0---1-----0----------
0--0-1---0--0----00-0-0-
-----0-----0---0-0---0--
-0---0-0----------0-0-0-
-------------0-----0----
---0-------0-------00---
--------0---------------
------0--0---0---0---0--
------1---0-------------
----0---1--0-------0----
--------0---------------
------0-----------------
------------------------

Generation = 4, Population = 116.
-12-0-1--0-122-----0----
1---0---01----1---0---00
2-------1------20-------
-----------------------0
001------10--110-0------
----10-------1--0-00-0--
------------1-2---------
-------------------0-0--
-0----0--10--0----1-----
---------0--0-------0-10
----------0-------1-----
-------------------0---1
0-----------0-0--0------
-----0----------0-1---0-
-------0------0-----1---
-------------0-1---1---1
--000---1----0--1---20--
-0-------1------------1-
---2-------0----1-------
---------1-----0-2-0---0
1------0---10---00-1----
-----1--0---------------
------00------------2---
-------------1-----1----
---0---1------------1--0
----1-------0-----------
--0-------0-------------
------------------------
-----------0-------0----
--------0---------------

Generation = 6, Population = 286.
-3-02--1--032-0-00-0-0--
3------1--111--------1--
--0-1------002-4--10----
0----0--13---11-1--0--1-
2-321--1----2112-0-1----
--11--11---0--10012-0---
0-0---0---0-1--1101-----
----00---2--11--100-0-1-
---00--1--2---202-1-1---
-------0--11--0---0-0-3-
00----0-000--01-211-1---
-----0---0--1---110-1---
0-0----0----0--10-010---
---0---1-----0010-1-----
0-0001--10---00--11-111-
-0---0---0-0-2-10-1----1
002021-2--0----11--24-01
---1---2-1-1-1---0--1---
011212-000-01-0--01100--
-0---0-111-0-0-0---2--10
1-00-210--13-1-0200310--
---0--01-10--0-0-1-----0
0--000--00-00---00002-00
----00--0--01--0-0---0--
-01---21-00-------0-1110
--1---2---1--10----0----
0--11--02--11------00--0
----0---1---0-----------
--0------01--0---0---0--
------0-0-0-------------

*** Life<FredkinCell> 24x17 ***

Generation = 0, Population = 8.
-----------------
---------------0-
-----0-----------
-----------------
-----------------
-----------------
-----------------
-----------------
0----------------
-----------------
---0---------0---
-----------------
-----------------
-----------------
-----------------
-----------------
-----------------
-----------------
-----------------
-------------0---
----------0------
---------------0-
-----------------
-----------------

Generation = 4, Population = 26.
-----0-----------
-----------0-----
-0-------0-------
-----------------
0----------------
---------------0-
---0-0-------0---
-----------------
--2-1------------
-----------------
-------0-0-------
-----------------
0----------------
-----------------
---0---------0---
-------------0---
----------0------
---------------0-
-----------------
---------0-------
------0-------0--
-----------0---0-
-----------------
-------------0-0-

*** Life<FredkinCell> 31x39 ***

Generation = 0, Population = 30.
---------------------------------------
-----0---------------------------------
-0------------------------------0------
------------0----------------0---------
---------0----------------0------------
---------------------------------------
---------------------------------------
---------------------------------------
-----------------------0---------------
-------0-0----------------0------------
--------------0-----------------0------
--------------------------------------0
---------0-----------0-----------0-----
---------------------------------------
---------------------------------------
---------------------0-----------------
---------------------------------------
---------------------------------------
---------------------------------------
---------0-----------------------------
--------------------------------0------
---------------------------------------
---------------------------------------
------------------------0--------------
---------------------0----0------------
----0--0---------------0---------------
---------------------------------------
-----0---0-----------------0-----------
---------------------------------------
---------------------------------------
-------------------------0-------------

Generation = 2, Population = 112.
-0------------------------------0------
---0---0----0----------------0---------
---0-----0----------------0---0---0----
-----0----0---0------------0---0-------
-0-----0---0------------0---0---0------
------------0----------------0---------
---------0-------------0--0------------
-------0-0----------------0------------
--------------0------0---0------0------
-----0-0-0-0------------0---0---------0
---------1--0---0----0-0------0--10----
-------0-1----------------0---------0-0
-------0---0--0----0---0-------01--0---
---------------------1----------------0
---------0-----------1-----------0-----
-------------------0---0---------------
---------------------------------------
---------0-----------0-----------------
--------------------------------0------
-------0---0---------------------------
------------------------------0---0----
---------0--------------0--------------
---------------------0----0-----0------
----0--0--------------01--1------------
-------------------0---11---0----------
--0---1--------------1--10-0-----------
---------------------0----0------------
---01--0---0-----------0-0---0---------
-------------------------0-------------
-----0---0-----------------0-----------
-----------------------0-0-0-----------

Generation = 4, Population = 109.
-0-------0----------------0-----0------
-1---0---1-----------------------------
-0---1----------------------0-------0--
--------0-------0--------0-------0-----
-----1-------0--------01------0--------
-----0-1-1----------------1------------
-0------------0------------------------
------------0----------------0--------0
-------------------0-0----00-----1-----
---0-0-----0-0--------0-------1--------
----------1-------0---------1-------1--
---------------------1------------1-0--
-----0-------1---0-----0-0---0-------0-
-------1-1----------------0------------
--------------0-----------------1------
---------1-------0-------0------------0
---------1-----------1----------00-----
---------------------------------------
---------------------------------------
-----0-------0-------0--0--------------
---------------------0----0-0-------0--
----0--0---------------1---------------
---------------------------------------
-----1--------------0------11----------
-----------------0----0--0----0-0------
0--1----0--0-------1-------0-----------
-------------------------1-------------
-0---1---0---0---------00------0-------
---------------------0---21------------
----1--0---------------1---------------
---------------------0-------0---------
